<?xml version="1.0" encoding="utf-8"?>
<!-- Generator: Adobe Illustrator 15.1.0, SVG Export Plug-In . SVG Version: 6.00 Build 0)  -->
<!DOCTYPE svg PUBLIC "-//W3C//DTD SVG 1.1//EN" "http://www.w3.org/Graphics/SVG/1.1/DTD/svg11.dtd">
<svg version="1.1" id="Layer_1" xmlns="http://www.w3.org/2000/svg" xmlns:xlink="http://www.w3.org/1999/xlink" x="0px" y="0px"
	 width="322px" height="191px" viewBox="0 0 322 191" enable-background="new 0 0 322 191" xml:space="preserve">
<path fill="#26354A" d="M20.04,0c3.82,0,5.72,2.6,5.72,5.58c0,3.72-3.31,7.16-7.63,7.16c-3.62,0-5.73-2.14-5.63-5.67
	C12.51,4.09,15.02,0,20.04,0z M8.29,57c-3.01,0-5.22-1.86-3.11-10.04l3.46-14.51c0.6-2.32,0.7-3.25,0-3.25
	c-0.9,0-4.82,1.61-7.13,3.19L0,29.87c7.33-6.23,15.77-9.88,19.38-9.88c3.01,0,3.52,3.63,2.01,9.2l-3.96,15.25
	c-0.7,2.7-0.4,3.62,0.3,3.62c0.9,0,3.87-1.12,6.78-3.44l1.71,2.33C19.09,54.21,11.3,57,8.29,57z"/>
<g>
	<g>
		<path fill="#FFFFFF" d="M81.656,56.877c-1.744,0-3.393-0.815-4.453-2.215L62.883,35.75c-1.863-2.459-1.378-5.962,1.082-7.825
			c2.463-1.865,5.963-1.376,7.827,1.082l9.418,12.438L104.898,3.41c1.631-2.617,5.075-3.417,7.697-1.79
			c2.619,1.63,3.419,5.077,1.787,7.696L86.399,54.245c-0.972,1.562-2.65,2.545-4.487,2.628
			C81.825,56.876,81.742,56.877,81.656,56.877z"/>
	</g>
</g>
<g>
	<path fill="#99A0AA" d="M192.441,0h-50.813c-1.742,0-3.153,1.411-3.153,3.152v50.813c0,1.741,1.411,3.152,3.153,3.152h50.813
		c1.74,0,3.15-1.411,3.15-3.152V3.152C195.593,1.411,194.182,0,192.441,0"/>
	<path fill="#FAFAFA" d="M185.311,34.999l1.111-8.621h-8.537v-5.504c0-2.495,0.694-4.196,4.272-4.196l4.563-0.002v-7.71
		c-0.789-0.104-3.498-0.339-6.65-0.339c-6.582,0-11.088,4.018-11.088,11.395v6.357h-7.443V35h7.443v22.119h8.901v-22.12H185.311z"/>
</g>
<g>
	<path fill="#99A0AA" d="M255.441,0h-50.813c-1.742,0-3.153,1.411-3.153,3.152v50.813c0,1.741,1.411,3.152,3.153,3.152h50.813
		c1.74,0,3.15-1.411,3.15-3.152V3.152C258.593,1.411,257.182,0,255.441,0"/>
	<g>
		<polygon fill="#FFFFFF" points="249.5,24 244.5,24 244.5,29 241.5,29 241.5,24 236.5,24 236.5,21 241.5,21 241.5,16 244.5,16 
			244.5,21 249.5,21 		"/>
	</g>
	<g>
		<path fill="#FFFFFF" d="M231.605,31.815c-1.19-0.844-2.406-2.158-2.406-2.615c0-0.754,0.065-1.085,1.703-2.359
			c1.861-1.459,3.015-4.092,3.162-6.47c0.244-3.881-1.607-6.855-1.891-6.855h2.315l4.723-2.572h-13.343
			c-4.929,0-10.143,4.657-10.143,9.153c0,4.732,3.723,8.352,8.479,8.367c-0.153,0.48-0.236,0.776-0.236,1.229
			c0,0.769,0.222,1.829,0.663,1.829c-0.115,0-0.23,0-0.347,0c-5.842,0-10.78,4.097-10.78,8.485c0,3.896,4.71,7.113,11.2,7.113
			c7.081,0,10.783-4.059,10.783-8.078C235.489,35.767,234.437,33.812,231.605,31.815z M220.921,20.851
			c-0.222-1.68,0.136-3.064,0.975-4.024c0.553-0.628,1.271-0.738,2.09-0.738h0.088c2.253,0,4.403,2.329,4.795,5.325
			c0.221,1.693-0.15,3.044-1.005,4.014c-0.55,0.633-1.261,0.95-2.138,0.95c-0.002,0-0.002,0-0.008,0
			C223.473,26.377,221.32,23.898,220.921,20.851z M224.714,43.495c-3.15,0-5.617-2.175-5.617-4.657c0-2.281,2.874-4.745,6.151-4.745
			h0.088c0.709,0,1.407,0.58,2.08,0.786l0.639,0.904c1.517,1.037,2.521,1.66,2.806,2.778c0.064,0.276,0.098,0.495,0.098,0.771
			C230.958,42.171,228.858,43.495,224.714,43.495z"/>
	</g>
</g>
<g>
	<path fill="#99A0AA" d="M318.85,0h-50.813c-1.742,0-3.153,1.411-3.153,3.152v50.813c0,1.741,1.411,3.152,3.153,3.152h50.813
		c1.74,0,3.15-1.411,3.15-3.152V3.152C322.001,1.411,320.59,0,318.85,0"/>
	<path fill-rule="evenodd" clip-rule="evenodd" fill="#FFFFFF" d="M294.371,14.117h11.75c5.294,0,9.625,4.331,9.625,9.625l0,0
		c0,5.294-4.331,9.625-9.625,9.625h-11.75v-4.25h10.75c2.956,0,5.375-2.419,5.375-5.375v0c0-2.956-2.419-5.375-5.375-5.375h-10.75
		V14.117z M282.621,14.117h11.75v4.25H283.62c-2.955,0-5.374,2.418-5.374,5.375v0c0,2.956,2.419,5.375,5.374,5.375h2.803l2.073,6
		l2.192-6h3.683v4.25h-1.409l-4.591,10.875l-4.276-10.875h-1.474c-5.294,0-9.625-4.331-9.625-9.625l0,0
		C272.996,18.448,277.327,14.117,282.621,14.117z"/>
</g>
</svg>
