%!PS-Adobe-3.0 EPSF-3.0 
%%BoundingBox: 0 0 595 842
%%Pages: 0
%%Creator: LibreOffice 4.2
%%Title: none
%%CreationDate: none
%%LanguageLevel: 2
%%EndComments
%%BeginProlog
%%BeginResource: procset SDRes-Prolog 1.0 0
/b4_inc_state save def
/dict_count countdictstack def
/op_count count 1 sub def
userdict begin
0 setgray 0 setlinecap 1 setlinewidth 0 setlinejoin 10 setmiterlimit[] 0 setdash newpath
/languagelevel where {pop languagelevel 1 ne {false setstrokeadjust false setoverprint} if} if
/bdef {bind def} bind def
/c {setgray} bdef
/l {neg lineto} bdef
/rl {neg rlineto} bdef
/lc {setlinecap} bdef
/lj {setlinejoin} bdef
/lw {setlinewidth} bdef
/ml {setmiterlimit} bdef
/ld {setdash} bdef
/m {neg moveto} bdef
/ct {6 2 roll neg 6 2 roll neg 6 2 roll neg curveto} bdef
/r {rotate} bdef
/t {neg translate} bdef
/s {scale} bdef
/sw {show} bdef
/gs {gsave} bdef
/gr {grestore} bdef
/f {findfont dup length dict begin
{1 index /FID ne {def} {pop pop} ifelse} forall /Encoding ISOLatin1Encoding def
currentdict end /NFont exch definefont pop /NFont findfont} bdef
/p {closepath} bdef
/sf {scalefont setfont} bdef
/ef {eofill}bdef
/pc {closepath stroke}bdef
/ps {stroke}bdef
/pum {matrix currentmatrix}bdef
/pom {setmatrix}bdef
/bs {/aString exch def /nXOfs exch def /nWidth exch def currentpoint nXOfs 0 rmoveto pum nWidth aString stringwidth pop div 1 scale aString show pom moveto} bdef
%%EndResource
%%EndProlog
%%BeginSetup
%%EndSetup
%%Page: 1 1
%%BeginPageSetup
%%EndPageSetup
pum
0.02833 0.02835 s 
0 -29700 t
/tm matrix currentmatrix def
gs
0 0 m 20999 0 l 20999 29699 l 0 29699 l 0 0 l eoclip newpath
gs
0 0 m 20999 0 l 20999 29699 l 0 29699 l 0 0 l eoclip newpath
0.099 c 15674 15724 m  15570 15862 15439 13583 8901 13898 ct 5048 14083 2612 15378 4456 16746 ct 
2777 15874 2972 14092 7771 13498 ct 8843 13366 9884 13357 10963 13439 ct 13876 13661 15806 14471 15674 15724 ct 
p
15674 15724 m  15674 15724 l  p
7478 16509 m  7453 16601 l  7317 16601 l  7342 16509 l  7478 16509 l  p
7478 16509 m  7478 16509 l  p
7427 16701 m  7308 17151 l  7172 17151 l  7291 16701 l  7427 16701 l  p
7427 16701 m  7427 16701 l  p
10284 17151 m  10455 16509 l  10824 16509 l  10907 16509 10966 16518 11000 16536 ct 
11036 16554 11053 16586 11053 16631 ct 11053 16655 11048 16685 11039 16719 ct 
11015 16811 10982 16872 10940 16900 ct 10899 16928 10821 16942 10707 16942 ct 
10672 16943 l  10493 16943 l  10438 17151 l  10284 17151 l  p
10284 17151 m  10284 17151 l  p
10521 16838 m  10694 16838 l  10763 16838 10808 16832 10829 16819 ct 10850 16807 10867 16777 10880 16729 ct 
10889 16698 10893 16675 10893 16660 ct 10893 16639 10885 16626 10867 16620 ct 
10850 16614 10818 16611 10770 16611 ct 10581 16611 l  10521 16838 l  p
10521 16838 m  10521 16838 l  p
11169 16831 m  11032 16831 l  11047 16776 11072 16740 11107 16722 ct 11143 16704 11210 16695 11307 16695 ct 
11388 16695 11445 16703 11477 16718 ct 11510 16732 11527 16758 11527 16795 ct 
11527 16812 11524 16833 11517 16857 ct 11439 17151 l  11303 17151 l  11326 17089 l 
11302 17114 11276 17132 11248 17141 ct 11221 17152 11181 17157 11129 17157 ct 
11066 17157 11020 17150 10992 17136 ct 10965 17122 10951 17098 10951 17066 ct 
10951 17051 10954 17036 10958 17018 ct 10972 16967 10997 16930 11034 16909 ct 
11072 16887 11128 16876 11203 16876 ct 11258 16876 11296 16880 11318 16887 ct 
11339 16894 11353 16908 11360 16928 ct 11381 16855 l  11386 16838 11389 16824 11389 16813 ct 
11389 16795 11381 16783 11367 16776 ct 11352 16770 11328 16767 11292 16767 ct 
11248 16767 11219 16770 11203 16778 ct 11188 16786 11177 16803 11169 16831 ct 
p
11169 16831 m  11169 16831 l  p
11235 16948 m  11187 16948 11155 16952 11136 16961 ct 11118 16969 11105 16986 11099 17011 ct 
11096 17020 11094 17030 11094 17039 ct 11094 17055 11102 17066 11117 17071 ct 
11132 17076 11160 17079 11201 17079 ct 11248 17079 11282 17074 11301 17066 ct 
11321 17056 11334 17038 11342 17012 ct 11343 17008 11344 17004 11344 17001 ct 
11344 16997 11344 16993 11344 16992 ct 11344 16976 11336 16964 11320 16958 ct 
11304 16951 11276 16948 11235 16948 ct p
11235 16948 m  11235 16948 l  p
12895 17007 m  13031 17007 l  13028 17016 l  13027 17020 l  13014 17070 12986 17106 12944 17126 ct 
12901 17146 12836 17157 12746 17157 ct 12660 17157 12600 17148 12566 17132 ct 
12532 17116 12515 17085 12515 17040 ct 12515 17013 12522 16976 12534 16926 ct 
12558 16835 12592 16773 12634 16743 ct 12677 16711 12750 16695 12852 16695 ct 
12935 16695 12992 16703 13024 16719 ct 13057 16734 13073 16763 13073 16807 ct 
13073 16832 13067 16866 13056 16909 ct 13046 16945 l  12665 16945 l  12661 16963 l 
12657 16975 12655 16985 12653 16993 ct 12652 17002 12651 17010 12651 17018 ct 
12651 17040 12659 17055 12675 17064 ct 12692 17071 12720 17075 12759 17075 ct 
12808 17075 12840 17071 12856 17063 ct 12873 17054 12886 17036 12895 17007 ct 
p
12895 17007 m  12895 17007 l  p
12685 16878 m  12931 16878 l  12936 16861 l  12940 16843 12942 16830 12942 16821 ct 
12942 16803 12934 16791 12918 16785 ct 12903 16779 12875 16776 12834 16776 ct 
12782 16776 12747 16782 12729 16794 ct 12712 16805 12697 16833 12685 16878 ct 
p
12685 16878 m  12685 16878 l  p
9164 16701 m  9300 16701 l  9275 16764 l  9301 16738 9327 16720 9353 16710 ct 
9379 16700 9411 16694 9449 16694 ct 9490 16694 9520 16701 9539 16714 ct 9558 16727 9568 16748 9568 16777 ct 
9568 16796 9564 16818 9557 16843 ct 9549 16875 l  9421 16875 l  9429 16851 l 
9433 16835 9435 16823 9435 16815 ct 9435 16792 9416 16780 9378 16780 ct 9341 16780 9314 16788 9295 16803 ct 
9277 16819 9262 16846 9251 16886 ct 9181 17151 l  9045 17151 l  9164 16701 l 
p
9164 16701 m  9164 16701 l  p
8893 17007 m  9027 17007 l  9025 17016 l  9024 17020 l  9011 17070 8983 17106 8941 17126 ct 
8899 17146 8833 17157 8744 17157 ct 8658 17157 8598 17148 8563 17132 ct 8530 17116 8513 17085 8513 17040 ct 
8513 17013 8519 16976 8532 16926 ct 8556 16835 8589 16773 8632 16743 ct 8675 16711 8748 16695 8849 16695 ct 
8932 16695 8989 16703 9021 16719 ct 9053 16734 9069 16763 9069 16807 ct 9069 16832 9064 16866 9052 16909 ct 
9043 16945 l  8663 16945 l  8658 16963 l  8655 16975 8653 16985 8651 16993 ct 
8650 17002 8649 17010 8649 17018 ct 8649 17040 8657 17055 8673 17064 ct 8690 17071 8718 17075 8757 17075 ct 
8806 17075 8838 17071 8854 17063 ct 8871 17054 8884 17036 8893 17007 ct p
8893 17007 m  8893 17007 l  p
8682 16878 m  8928 16878 l  8932 16861 l  8936 16843 8938 16830 8938 16821 ct 
8938 16803 8931 16791 8915 16785 ct 8901 16779 8873 16776 8831 16776 ct 8779 16776 8744 16782 8727 16794 ct 
8710 16805 8695 16833 8682 16878 ct p
8682 16878 m  8682 16878 l  p
8221 16509 m  8150 16775 l  8173 16744 8199 16724 8227 16713 ct 8256 16701 8296 16695 8348 16695 ct 
8405 16695 8446 16703 8471 16718 ct 8497 16732 8509 16757 8509 16791 ct 8509 16807 8507 16826 8501 16845 ct 
8420 17151 l  8285 17151 l  8358 16874 l  8362 16861 l  8365 16850 8366 16839 8366 16829 ct 
8366 16798 8339 16783 8283 16783 ct 8232 16783 8194 16791 8170 16807 ct 8146 16823 8129 16852 8118 16895 ct 
8050 17151 l  7915 17151 l  8085 16509 l  8221 16509 l  p
8221 16509 m  8221 16509 l  p
7934 16824 m  7803 16824 l  7804 16816 l  7805 16810 7805 16806 7805 16803 ct 
7805 16789 7799 16780 7786 16776 ct 7773 16772 7746 16770 7704 16770 ct 7656 16770 7624 16774 7608 16780 ct 
7593 16786 7583 16798 7578 16815 ct 7574 16831 7572 16844 7572 16851 ct 7572 16863 7580 16870 7597 16874 ct 
7614 16877 7651 16879 7708 16879 ct 7785 16879 7838 16885 7868 16896 ct 7898 16908 7913 16929 7913 16961 ct 
7913 16967 7912 16974 7911 16982 ct 7910 16990 7908 16999 7905 17011 ct 7890 17065 7862 17103 7818 17124 ct 
7775 17145 7704 17157 7604 17157 ct 7522 17157 7464 17150 7430 17137 ct 7397 17123 7381 17100 7381 17067 ct 
7381 17060 7381 17053 7382 17045 ct 7383 17037 7385 17029 7387 17021 ct 7391 17009 l 
7530 17009 l  7526 17023 l  7524 17031 7523 17038 7523 17044 ct 7523 17058 7530 17067 7546 17072 ct 
7562 17077 7589 17080 7629 17080 ct 7677 17080 7711 17076 7729 17068 ct 7748 17061 7760 17045 7767 17021 ct 
7769 17012 7770 17004 7770 16997 ct 7770 16985 7765 16977 7755 16972 ct 7745 16967 7727 16965 7702 16965 ct 
7597 16965 7526 16959 7489 16947 ct 7452 16936 7434 16913 7434 16879 ct 7434 16866 7436 16851 7441 16832 ct 
7455 16778 7482 16742 7522 16723 ct 7562 16705 7632 16695 7732 16695 ct 7811 16695 7866 16701 7895 16713 ct 
7926 16724 7941 16745 7941 16777 ct 7941 16790 7939 16806 7934 16824 ct p
7934 16824 m  7934 16824 l  p
6895 16611 m  6849 16785 l  7206 16785 l  7178 16887 l  6822 16887 l  6752 17151 l 
6598 17151 l  6769 16509 l  7299 16509 l  7271 16611 l  6895 16611 l  p
6895 16611 m  6895 16611 l  p
12087 16701 m  11813 17179 l  11774 17246 11736 17291 11699 17314 ct 11662 17338 11610 17350 11542 17350 ct 
11534 17350 11528 17350 11524 17350 ct 11520 17350 11514 17350 11509 17349 ct 
11503 17348 11499 17348 11495 17348 ct 11517 17269 l  11544 17270 l  11576 17270 11602 17261 11624 17243 ct 
11646 17225 11667 17195 11687 17151 ct 11618 17151 l  11553 16701 l  11697 16701 l 
11717 16892 l  11727 16987 l  11732 17035 l  11735 17082 l  11763 17035 l 
11789 16987 l  11840 16892 l  11946 16701 l  12087 16701 l  p
12087 16701 m  12087 16701 l  p
12305 16509 m  12207 16876 l  12242 16876 l  12439 16701 l  12596 16701 l 
12344 16913 l  12516 17151 l  12349 17151 l  12219 16951 l  12187 16951 l 
12134 17151 l  11998 17151 l  12169 16509 l  12305 16509 l  p
12305 16509 m  12305 16509 l  p
13351 16509 m  13181 17151 l  13045 17151 l  13216 16509 l  13351 16509 l 
p
13351 16509 m  13351 16509 l  p
9864 16799 m  9934 16787 10000 16778 10017 16775 ct 10068 16764 10082 16713 10088 16678 ct 
10091 16661 10076 16641 10061 16636 ct 10046 16631 10017 16628 9972 16628 ct 
9915 16628 9875 16633 9855 16642 ct 9841 16647 9827 16661 9819 16684 ct 9804 16726 9803 16743 9823 16763 ct 
9852 16788 l  9864 16799 l  p
9864 16799 m  9864 16799 l  p
10044 17038 m  9809 16850 l  9753 16860 9722 16868 9706 16881 ct 9691 16894 9671 16927 9659 16972 ct 
9656 16982 9653 16994 9650 17006 ct 9647 17019 9646 17030 9646 17041 ct 9646 17067 9658 17083 9683 17090 ct 
9708 17096 9758 17099 9834 17099 ct 9904 17099 9952 17095 9980 17087 ct 10008 17079 10029 17062 10044 17038 ct 
p
10044 17038 m  10044 17038 l  p
9908 16834 m  10077 16971 l  10088 16935 l  10098 16893 l  10179 16893 l 
10176 16908 l  10169 16937 l  10163 16958 10159 16974 10155 16984 ct 10152 16993 10146 17005 10138 17020 ct 
10244 17105 l  10187 17151 l  10097 17079 l  10071 17110 10040 17130 10004 17140 ct 
9969 17152 9912 17157 9833 17157 ct 9729 17157 9658 17150 9619 17135 ct 9581 17121 9561 17094 9561 17053 ct 
9561 17042 9562 17031 9564 17020 ct 9566 17010 9570 16995 9575 16976 ct 9590 16920 9609 16882 9630 16862 ct 
9652 16841 9690 16827 9743 16819 ct 9766 16815 l  9737 16791 9722 16768 9722 16747 ct 
9722 16739 9724 16728 9728 16713 ct 9743 16657 9767 16620 9802 16601 ct 9838 16581 9900 16571 9986 16571 ct 
10051 16571 10098 16577 10125 16590 ct 10153 16603 10167 16625 10167 16657 ct 
10167 16670 10165 16686 10159 16705 ct 10145 16749 10129 16803 10039 16814 ct 
10000 16820 9950 16827 9908 16834 ct p
9908 16834 m  9908 16834 l  p
5626 17158 m  5748 16575 l  5820 16575 l  5776 16783 l  5799 16762 5820 16748 5838 16739 ct 
5857 16730 5876 16726 5896 16726 ct 5936 16726 5968 16741 5995 16770 ct 6021 16800 6034 16842 6034 16898 ct 
6034 16936 6029 16970 6018 17001 ct 6008 17032 5995 17058 5979 17079 ct 5963 17100 5947 17117 5931 17129 ct 
5914 17142 5897 17152 5879 17158 ct 5862 17164 5845 17168 5829 17168 ct 5801 17168 5777 17160 5756 17145 ct 
5735 17130 5718 17107 5706 17077 ct 5689 17158 l  5626 17158 l  p
5626 17158 m  5626 17158 l  p
5733 16984 m  5732 16997 l  5732 17034 5741 17061 5758 17080 ct 5775 17098 5797 17108 5822 17108 ct 
5848 17108 5871 17099 5892 17081 ct 5913 17064 5930 17036 5943 16999 ct 5957 16962 5964 16927 5964 16896 ct 
5964 16861 5955 16833 5938 16813 ct 5921 16794 5900 16784 5875 16784 ct 5849 16784 5825 16794 5803 16814 ct 
5782 16834 5764 16865 5749 16906 ct 5738 16937 5733 16963 5733 16984 ct p
5733 16984 m  5733 16984 l  p
6051 17321 m  6056 17253 l  6071 17257 6085 17260 6099 17260 ct 6113 17260 6125 17256 6134 17250 ct 
6146 17241 6159 17225 6172 17200 ct 6195 17159 l  6125 16736 l  6196 16736 l 
6227 16949 l  6234 16991 6239 17033 6244 17075 ct 6432 16736 l  6508 16736 l 
6239 17214 l  6213 17261 6190 17291 6170 17306 ct 6149 17321 6126 17329 6100 17329 ct 
6083 17329 6067 17326 6051 17321 ct p
6051 17321 m  6051 17321 l  p
11399 16272 m  12089 16259 12778 16268 13468 16255 ct 14295 16186 14849 15473 13831 15386 ct 
13482 15352 13132 15318 12781 15284 ct 12378 15220 12460 15036 12836 14967 ct 
13476 14896 13810 14962 13839 15165 ct 14550 15168 l  14551 15003 14448 14857 14139 14782 ct 
13573 14646 12878 14676 12323 14835 ct 11567 15052 11796 15502 12442 15542 ct 
12760 15562 13079 15578 13397 15600 ct 13707 15634 13740 15810 13533 15930 ct 
13396 16009 13278 16004 13126 16006 ct 12581 16013 12038 16020 11494 16027 ct 
11463 16109 11431 16190 11399 16272 ct p
11399 16272 m  11399 16272 l  p
10989 15204 m  11223 15199 11457 15194 11692 15189 ct 11677 15013 11540 14902 11331 14830 ct 
10747 14627 9876 14681 9287 14884 ct 9067 14960 8875 15066 8731 15212 ct 8404 15543 8372 16004 8898 16165 ct 
9306 16291 10036 16313 11178 16272 ct 11221 16182 11263 16093 11305 16003 ct 
10352 16022 9201 16163 9221 15584 ct 9185 15070 10593 14777 10989 15204 ct p
10989 15204 m  10989 15204 l  p
5631 14794 m  5427 15281 5223 15769 5018 16258 ct 5660 16249 6264 16241 6894 16233 ct 
7125 16230 7340 16236 7564 16170 ct 8422 15919 8904 15026 7977 14832 ct 7807 14797 7640 14803 7467 14802 ct 
6849 14799 6260 14796 5631 14794 ct p
5631 14794 m  5631 14794 l  p
6237 15016 m  6095 15356 5952 15695 5810 16035 ct 6257 16030 6194 16024 6633 16018 ct 
6794 16016 6944 16020 7100 15974 ct 7697 15800 8033 15178 7388 15043 ct 7269 15018 7153 15022 7032 15022 ct 
6602 15020 6676 15018 6237 15016 ct p
6237 15016 m  6237 15016 l  p
15039 14287 m  17181 15797 15010 17370 11562 17856 ct 10384 18022 9235 18023 8052 17916 ct 
5209 17659 3484 16881 3266 15493 ct 3086 16612 4141 17792 7508 18255 ct 8719 18421 9872 18450 11086 18334 ct 
17157 17754 16785 15088 15039 14287 ct p ef
gr
gs
0 0 m 20999 0 l 20999 29699 l 0 29699 l 0 0 l eoclip newpath
gr
gr
0 29700 t 
pom
count op_count sub {pop} repeat countdictstack dict_count sub {end} repeat b4_inc_state restore
%%PageTrailer
%%Trailer
%%EOF
