<?xml version="1.0" encoding="utf-8"?>
<!-- Generator: Adobe Illustrator 15.1.0, SVG Export Plug-In . SVG Version: 6.00 Build 0)  -->
<!DOCTYPE svg PUBLIC "-//W3C//DTD SVG 1.1//EN" "http://www.w3.org/Graphics/SVG/1.1/DTD/svg11.dtd">
<svg version="1.1" xmlns="http://www.w3.org/2000/svg" xmlns:xlink="http://www.w3.org/1999/xlink" x="0px" y="0px"
	 width="1445.9px" height="216.6px" viewBox="0 0 1445.9 216.6" enable-background="new 0 0 1445.9 216.6" xml:space="preserve">
<g id="Shape_24_1_" opacity="0.6706" enable-background="new    ">
	<linearGradient id="SVGID_1_" gradientUnits="userSpaceOnUse" x1="1093.125" y1="216.3936" x2="1093.125" y2="124.833">
		<stop  offset="0" style="stop-color:#99A0AA;stop-opacity:0"/>
		<stop  offset="1" style="stop-color:#99A0AA"/>
	</linearGradient>
	<path fill-rule="evenodd" clip-rule="evenodd" fill="url(#SVGID_1_)" d="M1214.8,205.5c-9.4-2.9-20.1-8.1-20.4-8.1
		c-0.8-0.1-24.4-5.9-26.3-6.4c-1.9-0.5-18.1-8.8-20.1-9.1c-2-0.3-12.3-7.2-13.9-7.5s-9.3-2.1-12.6-3c-3.3-0.9-4.8-1.5-5.3-1.7
		c-0.6-0.2-2.7,1.2-4.1,1.2s-7.1-1.3-8.2-1.4s-12.6-2.2-13.9-2.4c-1.3-0.2-11.2-3.1-13.4-3.6c-2.2-0.6-5.2-2.3-7.5-2.6
		c-2.2-0.3-5.3,1.6-6.1,1.6c-0.7,0-2.7-1.1-3.7-1.3c-1-0.2-6-1.2-6.6-1.6s-2.6-0.4-3.5-0.4c-0.8,0-5.4-2.1-7.6-3.3
		c-2.1-1.1-4.1-3-4.8-3.6c-0.7-0.6-8-3.6-9.7-4.1c-1.7-0.6-2.2-1.8-2.9-2.3c-0.7-0.6-2.1-1.4-3.2-1.8c-1.1-0.4-2.2-0.6-3.3-0.9
		s-0.7-1.5-1.7-2.1c-0.9-0.6-1.7,0.2-2.6-0.3s-0.7-1.3-1.1-1.7s-1.5-0.7-2.3-1.4c-0.8-0.7-2.8-2.2-4.3-2.6c-1.5-0.4-2.1,0-3.9-0.7
		s-3.4-3.3-4.4-3.6c-1-0.4-2.3-0.7-2.3-0.7l-0.8-1.4l-2.3-0.3l-3-1.3H984l-4.2-1.9l-1.2,1l-1.5,0.7c0,0,0.6,1.7,0.2,2.5
		s-7.1,7.1-7.1,7.1s5.1-6.3,5.5-7.6s1.2-3.2,1.2-3.2l-1.7-0.9l-8.4-0.1l-1.6,1.1l-4.5,1.9l-8.1,4.8l-11.6,7.1c0,0-16,13.3-18.6,15.1
		c5.4-4.4,10.1-9.1,10-9.9c-0.4,0.4-2,1.5-2,1.5s-2.2,0.5-2.5,0.5c-0.4,0-5.6,3.2-5.6,3.2l-7.5,4.3l-5.1-1.6c0,0-1.4,0.9-2,0.9
		c-0.6,0-1.6-1-1.6-1h-2l-0.7-0.9l-1.6-1.1c0,0-0.7-0.9-2.4-1.2c-1.7-0.3-2.1,0.6-2.1,0.6l-1.9,1.7l-2.1,0.6l-0.4,2.6
		c0,0-1.8,0.4-3.5,0.8c-1.7,0.5-4.3,4.1-4.3,4.1l-2.2-0.4c0,0-1.2,0.2-3,0.7c-1.8,0.6-4.3,2.8-4.3,2.8l-4.5-0.1l-4.9,0.1l-1.1-0.8
		l-10.5,5.6l-9.3,1.1l-6.5-1.1c0,0-4.1,0.1-4.9,0.4c-0.8,0.3-4.8,2.7-4.8,2.7l-8.8-0.1l-0.6,0.6l-4.2,0.4l-2.2-1.3l-2.9,3.4l-5.7,1
		l-11.6,0.8l-31.3-1.5l-0.7,42.1l663.3,0.3C1424.8,216.4,1227.8,209.5,1214.8,205.5z"/>
</g>
<g id="Shape_12_1_" enable-background="new    ">
	<path fill="#99A0AA" d="M1169.8,212.4l-0.2,0c-0.1,0-4.2-1.4-5-1.4c-0.8,0-3.5,0.4-4.1,0.4s-0.9-0.3-1.6-0.9s-3.2-0.6-4.2-0.6
		s-2.2,0-3-0.1c-0.8-0.1-2.1-0.6-2.1-0.6l-1.5-2l-4.8,2l-2.9-1.3l0-0.4l1.2-0.2v-8.8l-6.1-0.4l-0.3-3.7l-15.3-0.8l0.1-2.8l-4.9-0.4
		l-4.3-1.7l-6.7,2.2l-5.6,0.1l-0.2,3.4l-11.2,0.3l-0.2,3.5l-6.1,0.3l-0.1,2.4l1.5,0.7l0,0.9l-1.8-0.1v1l-2,0.3v-1.4l-0.7,0.1
		l-0.7,1.4l-2.2-0.4l-0.3-2.5l-0.9,0.1c0,0,0,2.1-0.1,2.5s-1.3,0.5-1.3,0.5s-2.3,0-2.8-0.3s-1.7-0.2-1.7-0.2l-2.6-0.2l-0.1,0l0.7-7
		l-0.6,0l1.1-2.1l0.3-2.7c0,0,0.9-0.9-2.4-2.8c-3.3-1.9-12.3-2.4-12.3-2.4s-10.4-14.9-27.6-16.4c-19.7-1.7-34.3,17.6-34.3,17.6
		s-9.6-14.9-30.1-16.7c-20.5-1.7-36.2,16.8-36.2,16.8s-2-0.3-5.8,1.1s-3.9,3.1-3.9,3.1l0.8,3.1l0.7,0.5l0.2,1l-5.1-0.4l-8,0.4
		l-0.7-24.8l-34.1,0.7l0.4,21.4l-7.5,0.3l0.1,2.6l-1.7,1l-0.2-1.4l-1-0.5l-0.8,1.6l-1.5,0.8l-1.2-0.7l-0.7-0.7l-0.6,0.4l-1.6-1.6
		l-1.8,0.6l-0.7-0.8l-1.8,1.2l-0.4-1.3L846,195l-2,0.6c0,0-1.4-0.1-1.7-0.5s-1.1-0.4-1.1-0.4l-0.4,0.7h-2.1l0.3-1.5l-3,1.7l-2.3,0.2
		l-0.7,1.7l-2.6-0.1l-0.7-1.1l-2,0.1l-0.2,0.7c0,0-3.2,0.7-4,0.7c-0.8,0-0.4-0.7-0.7-1.2c-0.3-0.5-2.7-0.1-2.7-0.1l-0.2,1.3l-1-0.1
		l-0.7-1.5l-1.1,1.6l-1.2-1l-1.1-1.1l-1.3,0.9l-1.3-0.8l-2,0.7l-1.3,1.7l-1.5-0.3l-0.3-1.7l-0.7,0.7l-1-0.8l-1.9,2.1l-0.5-0.4
		l-1.7-0.8l-0.4-1.2l-1.5,3.8l-1.2-0.7l-1.1,0.8l-0.7-1.4l0-0.2l-0.2-0.1l-0.5-1.1l-0.8,0.5l-0.8-0.4l-0.3-5.5l-8.5-0.3l-2.6-3.1
		l-7.1-0.2l-0.2-1.8l-1.3-0.8l-3.9,0.2l-0.1-1.9l-2.8-0.2l0.2-10.7l-8.5-3.9h-14.8l-5.9,2.7v-27l-1.3-0.9l0.3-6.8l-1.6-1.1l-6.1-0.1
		l-0.1-5.2l-1.6-1.3h-7.7l-0.1,7.5l-6.1,0.1l0.1,6.3l-1.1,0.1l0.3,5.6h-1.1l-4.9,1.3v1.3l3,0.8l0.2,6.4l-3.3-1.8l-11.7-1l-0.3-18.2
		l-14.2,0.1l-0.9-30.2l-5.7,0.1v-1l-8.1-9.2l-0.2-3.7l-3.4,0.2l0.1,3l-8.1,8.8l-0.2,1.9l-5.8,0.2l-0.8,3.1l0.4,64.2l-1.7,0.7v21
		l-4.3,0.2l-0.3,1.7l-1-0.2l-0.1-35.8l-3.3-0.1V128l-2.6-1.2l-31,0.4l0.2,21.9l-9,0.3l-0.1,14.2h-1.6l-1.6,0.9l-2.1-0.2l-3-2.2
		L587,75.2h-2l-0.8-0.8l-0.8-2.2H579c0.2-0.2,0.4-0.5,0.4-0.9c0-0.6-0.5-1.1-1.1-1.1c-0.6,0-1.1,0.5-1.1,1.1c0,0.3,0.2,0.6,0.4,0.9
		h-6.7l3.1-14.8c9-0.9,12.8-2.4,12.8-3.3c0-0.4-1.5-1-4.1-1.6l1.3-4.1c6-0.5,9.7-1.2,9.7-1.8c0-0.9-2.5-1.8-6.8-2.6l0.9-3.3l-21-7.7
		v-2l2.7-2.3v-0.7l-2.7,0l0.1-2.7l-0.8-0.7h-1.5l-2.9-2.2v2.1l-0.7,0.1v-0.7H560v-2.1l-1.1,0l-1-19.4c0.5-0.1,0.8-0.5,0.8-1
		c0-0.5-0.4-1-0.9-1c0,0-0.1,0-0.1,0c-0.6,0-1,0.5-1,1c0,0.6,0.5,1,1,1l-0.9,19.4l-1.1,0l0.1,1.8l-1.3,0.1l-0.1,0.8l-1.2-0.2
		l-0.3-1.6l-2.8,2.2l-1,0.5l0.1,2.9l-3.1,0v0.7l3.2,2.1c0,0,0.1,1.5,0.2,2.2L528,40.7l0.7,3.4c-4.7,0.8-7.5,1.7-7.5,2.4
		c0,0.7,4.1,1.4,10.6,1.9l1,4.1c-2.5,0.6-4,1.2-4,1.6c0,0.9,3.6,2.5,12.8,3.3l5.8,36.2c0,0,1,8.5,1.2,15.1
		c0.2,6.5,0.7,14.8,0.6,20.9c-0.1,4.8-1.1,17.7-1.5,22.9l-3.7,0.2l-0.2,25.1l-5.7-0.1l-0.3,1.9L536,180l0.1,2.6l-6.6-0.3l0.1-50.8
		l-4.7-1l-0.1-1.1l-1.5-0.6v-1.2l-0.6-0.6l-1.3-0.1l0.2-3.3l1-1.3l-1.7-13.8l-35.3,0.3l-0.1,1.2l0.9,0.8l-0.4,23.1l-5.8,0.2
		l-0.2,31.1h-12.1l-0.1,1.9h-2.8l-0.2-3l-16.5-0.3v-15h-0.8l-0.4-16.8l-2.5-0.1l-0.3-6.7l-4.3-0.2l-4.3-5.3l-2.9-0.8l-7.3,0.4
		l-6.8,8.1v1.3l-2.1-0.1l-0.1,3.6h-2l-0.8,2.4l-0.1,4.3h-5.2l-0.3,4.8l-8.3,0.3l0,11.8l-2.8-0.1l-3.1-2.2l-2.6,0.2l0.3-12.8l-37-0.4
		l-0.1,27.3l-3.4,1.7l0.7-60.1l-1-0.6l0.2-16l-1.1-0.1l0.1-2.5l-0.7-0.9l-0.2,0V69.9h-0.6v0.8l-2.4,2.1l-2,0.4l-1,3.2l2.6-0.5
		l2.8-0.6v13.8l-2.8-0.1l0.2-1.7l-5.8-0.3v-1.1l-30.7-3.7l-0.1,9.8l-4,0.1l-1,79.9l-24,0.1l-0.1,4.7h-6.5l0.2,14.8l-11.1,0l0.1,6.1
		l-18.6,0.1v5.3h-8.3v4.2c0,0-74.7,5.3-94.7,5.8c-14.7,0.4-141,3.5-141,3.5h1445.9L1169.8,212.4z M544.1,57.6c0.3,0,0.5,0,0.8,0.1
		l0.8,11L544.1,57.6z M552,105.2l-0.3,0c-0.1-0.9-0.1-1.8-0.2-2.7l0.6-0.1L552,105.2z M552.1,99.7l-0.8,0c-0.3-3.7-0.6-6.7-0.6-6.7
		l-3.9-35.2c1.7,0.1,3.6,0.2,5.6,0.2L552.1,99.7z M566.9,72.2h-3.2l0.1-14.2c1.9-0.1,3.7-0.1,5.4-0.2L566.9,72.2z M571.5,57.6
		c0.3,0,0.5,0,0.8-0.1l-2.3,8.6L571.5,57.6z M1027.6,182.3l0.4-1.8l0.5,1.9C1028.2,182.4,1027.9,182.4,1027.6,182.3z M1035.6,183.5
		l0.2-0.8l0.3,0.9C1035.9,183.6,1035.7,183.6,1035.6,183.5z M1031.7,182.9l0.4-1.5l0.3,1.7C1032.2,183,1031.9,183,1031.7,182.9z
		 M1023.6,181.8l0.5-1.6l0.5,1.7C1024.2,181.9,1023.9,181.8,1023.6,181.8z M1065,200h-0.3l-0.7-0.5l1-2.4l0.2,0L1065,200z
		 M1064.6,195.3l0.6-0.1l-0.9,2.2l-0.9,0L1064.6,195.3z M1063.1,197.9l0.8,0.1l-0.4,1l-0.6-0.5L1063.1,197.9z M1045.4,182.2
		c0.8,0.9,1.4,1.6,1.9,2.2l-0.6,1c-0.2,0-0.3-0.1-0.5-0.1l-0.8-2.8V182.2z M1044.5,182.1l0.9,3.1c-0.6-0.1-1.3-0.2-2.1-0.4l0.9-2.8
		L1044.5,182.1z M1041.9,178.9c0.7,0.5,1.3,1.1,1.8,1.6l0,1.1l-0.5,1.9l-1.2-4.5L1041.9,178.9z M1041.2,179l1.4,5.6
		c-0.7-0.1-1.6-0.3-2.4-0.4l-0.3-1.8l1-3.5H1041.2z M1038.3,176.3c0.7,0.4,1.3,0.9,1.9,1.3l0,1.1l-0.8,2.4l-1.1-4.5L1038.3,176.3z
		 M1037.5,176.6l1.5,6.6l-0.3,0.8c-0.6-0.1-1.3-0.2-2-0.3l-0.7-2.6l1.1-4.5L1037.5,176.6z M1036.7,175.3l-0.2,1.2l-0.8,3.1l-1.2-5.4
		C1035.3,174.5,1036,174.9,1036.7,175.3z M1033.8,174.7l1.5,6.8l-0.5,1.9c-0.5-0.1-1.1-0.2-1.7-0.3l-0.9-3.5l1.2-4.9H1033.8z
		 M1032.9,173.4l0,1l-0.9,3.5l-1.3-4.8l0-0.5C1031.4,172.9,1032.2,173.2,1032.9,173.4z M1030.1,173.6l1.4,6.5l-0.8,2.8
		c-0.5-0.1-0.9-0.1-1.4-0.2l-1-4l1.4-5.2L1030.1,173.6z M1026.8,171.8c0.8,0.1,1.5,0.3,2.2,0.4l0,0.9l-1,4l-1.2-5L1026.8,171.8z
		 M1026.2,172.6l1.4,6.5l-0.8,3.1c-0.5-0.1-1-0.1-1.5-0.2l-0.9-3.5l1.5-5.9H1026.2z M1022.9,171.5c0.5,0,1,0,1.4,0
		c0.3,0,0.6,0,0.8,0.1l0,0.7l-1.1,4.3l-1.1-4.7V171.5z M1022.3,172.6l1.4,6.2l-0.7,3c-0.3,0-0.7-0.1-1-0.1c-0.3,0-0.5-0.1-0.8-0.1
		l-0.8-2.6l1.7-6.3L1022.3,172.6z M1015.8,181.3l0.1-0.5l0.2,0.5C1016,181.3,1015.9,181.3,1015.8,181.3z M1020.4,181.3
		c-0.2,0-0.4,0-0.6-0.1l0.2-1.2L1020.4,181.3z M1018.9,171.8c0.8-0.1,1.6-0.2,2.4-0.3l-0.1,0.6l-1.2,4.8l-1.1-4.8V171.8z
		 M1018.2,172.9l1.3,6.3l-0.6,2.1c-0.7,0-1.4,0-2.1,0l-0.6-2.1l1.8-6.3L1018.2,172.9z M1015,172.7c0.8-0.2,1.5-0.4,2.3-0.6l-1.2,5.4
		l-1.1-4.4L1015,172.7z M1014.3,173.9l1.2,5.5l-0.6,1.9c-0.8,0.1-1.6,0.2-2.4,0.3l-0.3-1.3l1.8-6.5L1014.3,173.9z M1013.2,173.3
		l-1.4,5.5l-0.9-4.5C1011.7,173.9,1012.4,173.6,1013.2,173.3z M1010.2,175.4l1.2,5.4l-0.3,1.2c-1,0.2-1.9,0.4-2.9,0.6l0-0.2l1.7-7
		L1010.2,175.4z M1009.1,175.2l-1.3,5.6l-0.9-3.7l0-0.6C1007.6,176,1008.4,175.6,1009.1,175.2z M1006.3,177.7l1.2,4.7l-0.1,0.3
		c-1,0.2-1.9,0.5-2.9,0.8l1.5-5.8L1006.3,177.7z M1003,179.3c0.7-0.5,1.4-1.1,2.1-1.6l-1.1,5.5l-1-3.6V179.3z M1002.4,180.3l0.7,3.7
		c-0.7,0.2-1.4,0.4-2,0.7l1.1-4.3H1002.4z M1001.1,180.8l-1.1,4.1c-0.1,0-0.2,0.1-0.4,0.1l-0.5-2.4
		C999.7,182.1,1000.4,181.5,1001.1,180.8z M997.9,184c0.2-0.2,0.5-0.5,0.7-0.7l0.3,2.2l-0.2,0.1c-0.5,0.2-0.9,0.3-1.3,0.5L997.9,184
		z M995.9,186.2c0.2-0.3,0.6-0.7,1-1.1l-0.3,1.2c-0.3,0.1-0.5,0.2-0.7,0.3L995.9,186.2z M987.4,188.3c0,0-0.3-0.2-0.9-0.5l-0.4-1.1
		C987,187.7,987.4,188.3,987.4,188.3z M984.9,185.8l0.4,0.2l0.4,1.4c-0.4-0.2-0.8-0.3-1.2-0.5L984.9,185.8z M984.5,184.8l-0.6,1.8
		c-0.2-0.1-0.4-0.2-0.6-0.2l-0.7-3.4C983.3,183.6,983.9,184.2,984.5,184.8z M982.5,186.1c-0.6-0.3-1.3-0.5-2.1-0.8l1-2.9
		L982.5,186.1z M981,181.5l-0.9,3.5l-1.3-5.2C979.6,180.3,980.3,180.9,981,181.5z M978,179.7l1.2,5.2c-0.9-0.3-1.8-0.6-2.7-0.8
		l1.3-4.4H978z M977.2,178.6v0.3l-1,3.7l-1.2-5.5C975.8,177.6,976.5,178.1,977.2,178.6z M975.7,183.9c-0.9-0.2-1.9-0.5-3-0.7
		l-0.1-0.6l1.4-5.3L975.7,183.9z M973.4,176.3l0,0.7l-0.9,3.9l-1.3-5.7C971.9,175.5,972.6,175.9,973.4,176.3z M970.2,175.4l1.7,7.2
		l-0.2,0.4l0.2,0.1c-1-0.2-1.9-0.4-3-0.5l-0.4-1.1l1.4-6L970.2,175.4z M969.4,174.4l-0.1,0.9l-1.1,4.3l-1.3-6
		C967.8,173.8,968.6,174.1,969.4,174.4z M966.3,174.2l1.7,7.3l-0.3,0.9c-0.9-0.1-1.8-0.2-2.7-0.3l-0.4-1.5l1.5-6.3L966.3,174.2z
		 M965.5,173.2l0,0.6l-1.2,4.8l-1.5-6C963.7,172.8,964.6,173,965.5,173.2z M962.1,173.5l1.6,7.2l-0.4,1.2c-0.6,0-1.1-0.1-1.7-0.1
		l0-3.2l-0.9-0.3l1.1-4.9L962.1,173.5z M961.2,172.5c0.1,0,0.1,0,0.2,0l-1.3,5.7l-1.5-5.8C959.4,172.3,960.3,172.4,961.2,172.5z
		 M957.9,173.2l1.3,5.2l-2.8,0l1.2-5.3L957.9,173.2z M957.1,172.4l-1.2,5.5l-0.1-5.4C956.2,172.4,956.7,172.4,957.1,172.4z
		 M955.4,173.9l0.1,3.7l-0.8-3.4L955.4,173.9z M953.7,174.4l1.2,4l-2.4,0.6l-0.1,3.3c-0.1,0-0.2,0-0.4,0.1l-0.4-1.4l1.7-6.6
		L953.7,174.4z M950.1,173.5c0.9-0.3,1.8-0.5,2.8-0.6l-1.5,6.3l-1.2-5L950.1,173.5z M949.4,174.4l1.5,6.6l-0.6,1.7
		c-0.9,0.1-1.8,0.3-2.7,0.5l-0.2-1.2l1.7-7.6L949.4,174.4z M945.9,175c0.9-0.4,1.7-0.7,2.7-1l-1.5,6.3l-1.2-4.7L945.9,175z
		 M945.3,175.9l1.4,6.2l-0.4,1.4l0,0c-1.1,0.2-2.2,0.5-3.2,0.7l1.8-8.2L945.3,175.9z M941.7,177c0.8-0.5,1.7-0.9,2.6-1.3l-1.5,6.2
		l-1-4.2V177z M941,177.9l1.5,6.4c-1.2,0.3-2.4,0.6-3.5,0.8l1.7-7.1L941,177.9z M937.6,179.7c0.8-0.5,1.5-1.1,2.4-1.6l-1.5,6
		l-0.9-3.9L937.6,179.7z M936.8,180.5l1.1,4.9c-1,0.3-1.9,0.5-2.8,0.8l1.3-5.5L936.8,180.5z M935.7,181.1l-1.2,5.1l-0.2,0.1l-1-3.1
		C934,182.5,934.8,181.8,935.7,181.1z M932.6,183.8l0.9,2.9c-0.8,0.2-1.5,0.4-2.1,0.6l1-3.2C932.4,184,932.5,183.9,932.6,183.8z
		 M931.4,185l-0.9,2.6c-0.1,0-0.3,0.1-0.4,0.1l-0.2-1.1C930.3,186.1,930.8,185.5,931.4,185z M929.2,187.3l0.1,0.6
		c-0.6,0.2-0.9,0.3-0.9,0.3S928.8,187.8,929.2,187.3z M918,196l0.1,0.6l-0.2,0l-0.5-0.6H918z M916.6,195.9l0.6,0.6l-0.6,0
		L916.6,195.9z"/>
</g>
</svg>
